{
  "tray_id": "Test082420resp",
  "temp_average": 23,
  "temp_max": 26,
  "temp_min": 21,
  "lab_id_1": "testrespa",
  "respiration_24_1": "{\"meta\":{\"filename\":\"measurement_2020-08-25T12:27:11.830-04:00.json\",\"scriptID\":\"carbon-mineralization-syringe2\",\"date\":\"2020-08-25T12:27:11.830-04:00\"},\"data\":{\"max_co2\":\"2399\",\"min_co2\":\"1278\"}}",
  "lab_id_2": "testrespb",
  "respiration_24_2": "{\"meta\":{\"filename\":\"measurement_2020-08-25T12:27:11.830-04:00.json\",\"scriptID\":\"carbon-mineralization-syringe2\",\"date\":\"2020-08-25T12:27:11.830-04:00\"},\"data\":{\"max_co2\":\"2800\",\"min_co2\":\"1100\"}}",
  "lab_id_3": "testrespc",
  "respiration_24_3": "{\"meta\":{\"filename\":\"measurement_2020-08-25T12:27:11.830-04:00.json\",\"scriptID\":\"carbon-mineralization-syringe2\",\"date\":\"2020-08-25T12:27:11.830-04:00\"},\"data\":{\"max_co2\":\"6988\",\"min_co2\":\"1254\"}}",
  "lab_id_4": "testrespd",
  "respiration_24_4": "{\"meta\":{\"filename\":\"measurement_2020-08-25T12:27:11.830-04:00.json\",\"scriptID\":\"carbon-mineralization-syringe2\",\"date\":\"2020-08-25T12:27:11.830-04:00\"},\"data\":{\"max_co2\":\"1905\",\"min_co2\":\"1677\"}}"
}