{
  "device_name": "Soil Respiration",
  "device_version": "0.0.7",
  "device_id": "ff:ff:ff:ff",
  "device_battery": 0,
  "device_firmware": "3.0.2",
  "sample": [
    {
      "invalid_entry": [
        "nan"
      ],
      "data_raw": [
        0
      ],
      "passed": {
        "leaf": "",
        "card_qr": "",
        "blank": ""
      },
      "calibration": 0
    },
    {
      "invalid_entry": [
        "nan"
      ],
      "data_raw": [
        0
      ],
      "passed": {
        "leaf": "",
        "card_qr": "",
        "blank": ""
      },
      "calibration": 0
    },
    {
      "co2": [
        "920.000000",
        "680.000000",
        "570.000000",
        "530.000000",
        "510.000000",
        "510.000000",
        "510.000000",
        "500.000000",
        "500.000000",
        "500.000000",
        "500.000000",
        "500.000000"
      ],
      "data_raw": [
        0,
        5188,
        5188,
        5188,
        5188,
        5188,
        5188,
        5188,
        5188,
        5188,
        5188,
        5188
      ],
      "passed": {
        "leaf": "",
        "card_qr": "",
        "blank": ""
      },
      "calibration": 0
    },
    {
      "invalid_entry": [
        "nan"
      ],
      "data_raw": [
        0
      ],
      "passed": {
        "leaf": "",
        "card_qr": "",
        "blank": ""
      },
      "calibration": 0
    },
    {
      "data_raw": [
        0,
        1676,
        1676
      ],
      "passed": {
        "leaf": "",
        "card_qr": "",
        "blank": ""
      },
      "calibration": 0
    },
    {
      "invalid_entry": [
        "nan"
      ],
      "data_raw": [
        0
      ],
      "passed": {
        "leaf": "",
        "card_qr": "",
        "blank": ""
      },
      "calibration": 0
    },
    {
      "invalid_entry": [
        "nan"
      ],
      "data_raw": [
        0
      ],
      "passed": {
        "leaf": "",
        "card_qr": "",
        "blank": ""
      },
      "calibration": 0
    },
    {
      "invalid_entry": [
        "nan"
      ],
      "data_raw": [
        0
      ],
      "passed": {
        "leaf": "",
        "card_qr": "",
        "blank": ""
      },
      "calibration": 0
    },
    {
      "co2": [
        "520.000000",
        "530.000000",
        "530.000000",
        "540.000000",
        "550.000000"
      ],
      "data_raw": [
        0,
        1676,
        1676,
        1676,
        0
      ],
      "passed": {
        "leaf": "",
        "card_qr": "",
        "blank": ""
      },
      "calibration": 0
    },
    {
      "invalid_entry": [
        "nan"
      ],
      "data_raw": [
        0
      ],
      "passed": {
        "leaf": "",
        "card_qr": "",
        "blank": ""
      },
      "calibration": 0
    }
  ]
}