{
  "device_name": "Reflectometer",
  "device_version": "1B",
  "device_id": "00:00:00:10",
  "device_battery": 96,
  "device_firmware": 1.22,
  "sample": [
    {
      "averages": 3,
      "temperature": 25.116667,
      "humidity": 35.279667,
      "pressure": 854.753418,
      "voc": 59.908669,
      "data_raw": [
        7104.6665,
        7123.3335,
        7135.3335,
        7142,
        7146.6665,
        7150,
        7150,
        7149.3335,
        7143.3335,
        7130,
        7119.3335,
        7104.6665,
        7086,
        7060.6665,
        7031.3335,
        6998,
        6958.6665,
        6908.6665,
        6862,
        6812,
        6748.6665,
        6689.3335,
        6622.6665,
        6556,
        6483.3335,
        6404.6665,
        6326.6665,
        6243.3335,
        6151.3335,
        6061.3335,
        5964.6665,
        5864.6665,
        5764,
        5669.3335,
        5573.3335,
        5475.3335,
        5387.3335,
        5304,
        5232.6665,
        5165.3335,
        5110.6665,
        5065.3335,
        5032.6665,
        5009.3335,
        4988.6665,
        4977.3335,
        4962.6665,
        4955.3335,
        4945.3335,
        4935.3335,
        4922.6665,
        4915.3335,
        4906,
        4898,
        4889.3335,
        4886,
        4876.6665,
        4872,
        4868.6665,
        4864.6665,
        12087.333,
        12123.333,
        12122,
        12112,
        12109.333,
        12103.333,
        12098.667,
        12089.333,
        12086,
        12075.333,
        12066,
        12054.667,
        12040,
        12022.667,
        12006,
        11980.667,
        11954.667,
        11923.333,
        11884,
        11840,
        11798,
        11754.667,
        11709.333,
        11666.667,
        11625.333,
        11580.667,
        11542,
        11509.333,
        11471.333,
        11438.667,
        11413.333,
        11376,
        11354,
        11324,
        11304,
        11282.667,
        11263.333,
        11247.333,
        11231.333,
        11220,
        11208.667,
        11192.667,
        11191.333,
        11176,
        11170.667,
        11162.667,
        11156,
        11156.667,
        11152,
        11151.333,
        11155.333,
        11156.667,
        11158,
        11170.667,
        11174,
        11188,
        11194.667,
        11211.333,
        11221.333,
        11239.333,
        18079.334,
        17967.334,
        17982,
        18004.666,
        18028,
        18056.666,
        18091.334,
        18131.334,
        18171.334,
        18209.334,
        18258,
        18310.666,
        18368,
        18426.666,
        18493.334,
        18562,
        18642,
        18729.334,
        18820,
        18921.334,
        19039.334,
        19154.666,
        19284,
        19404.666,
        19533.334,
        19651.334,
        19755.334,
        19843.334,
        19909.334,
        19960,
        20000.666,
        20026.666,
        20046.666,
        20058,
        20074.666,
        20090.666,
        20093.334,
        20106.666,
        20106,
        20110,
        20112,
        20112.666,
        20114.666,
        20114.666,
        20113.334,
        20116,
        20117.334,
        20115.334,
        20122.666,
        20120,
        20123.334,
        20121.334,
        20125.334,
        20127.334,
        20134,
        20134.666,
        20135.334,
        20147.334,
        20164,
        20171.334,
        12994.667,
        12916,
        12954.667,
        13005.333,
        13042.667,
        13088.667,
        13135.333,
        13171.333,
        13213.333,
        13255.333,
        13307.333,
        13368.667,
        13447.333,
        13534.667,
        13627.333,
        13740.667,
        13851.333,
        13962,
        14088,
        14224.667,
        14376,
        14533.333,
        14697.333,
        14873.333,
        15051.333,
        15231.333,
        15414.667,
        15606,
        15792.667,
        15988.667,
        16186,
        16379.333,
        16582.666,
        16763.334,
        16962.666,
        17132.666,
        17309.334,
        17472.666,
        17627.334,
        17752.666,
        17856.666,
        17951.334,
        18028,
        18094.666,
        18142.666,
        18184,
        18224,
        18242.666,
        18266,
        18214,
        18170,
        18089.334,
        18014.666,
        17924,
        17833.334,
        17721.334,
        17597.334,
        17408.666,
        17216.666,
        17031.334,
        17000,
        16930,
        16806.666,
        16664.666,
        16527.334,
        16400,
        16280.667,
        16150,
        16027.333,
        15912,
        15816.667,
        15730.667,
        15650.667,
        15584.667,
        15531.333,
        15491.333,
        15462,
        15449.333,
        15424,
        15411.333,
        15408.667,
        15412.667,
        15412,
        15424.667,
        15436,
        15455.333,
        15472,
        15489.333,
        15515.333,
        15536.667,
        15550,
        15570,
        15598,
        15612.667,
        15630,
        15654.667,
        15668.667,
        15689.333,
        15702,
        15718.667,
        15736.667,
        15747.333,
        15759.333,
        15774,
        15780,
        15796,
        15800,
        15808.667,
        15812,
        15807.333,
        15801.333,
        15790.667,
        15778,
        15748.667,
        15712,
        15666.667,
        15617.333,
        15559.333,
        15498.667,
        15430.667,
        22684.666,
        22709.334,
        22634,
        22566.666,
        22490.666,
        22405.334,
        22315.334,
        22206.666,
        22116,
        22035.334,
        21944,
        21851.334,
        21779.334,
        21683.334,
        21601.334,
        21511.334,
        21440,
        21357.334,
        21305.334,
        21231.334,
        21158,
        21095.334,
        21050,
        20991.334,
        20940.666,
        20866.666,
        20788,
        20738.666,
        20690,
        20650.666,
        20622.666,
        20593.334,
        20559.334,
        20538.666,
        20518.666,
        20503.334,
        20495.334,
        20472.666,
        20450.666,
        20440.666,
        20426,
        20412,
        20398,
        20391.334,
        20387.334,
        20384.666,
        20378.666,
        20376.666,
        20379.334,
        20392,
        20408,
        20422,
        20439.334,
        20456.666,
        20485.334,
        20520,
        20558.666,
        20598,
        20640.666,
        20701.334,
        19302,
        19358.666,
        19402,
        19458.666,
        19525.334,
        19576,
        19608,
        19662,
        19698.666,
        19740,
        19773.334,
        19811.334,
        19846.666,
        19894.666,
        19938.666,
        19981.334,
        20018.666,
        20060.666,
        20082.666,
        20104,
        20130.666,
        20149.334,
        20168.666,
        20186,
        20201.334,
        20211.334,
        20227.334,
        20191.334,
        20152,
        20114.666,
        20080.666,
        20044,
        20002,
        19950.666,
        19908.666,
        19872,
        19836.666,
        19794,
        19736.666,
        19696,
        19661.334,
        19637.334,
        19604.666,
        19583.334,
        19584.666,
        19604.666,
        19636,
        19694,
        19757.334,
        19860.666,
        19972.666,
        20108.666,
        20251.334,
        20418.666,
        20588.666,
        20777.334,
        20963.334,
        21150.666,
        21337.334,
        21529.334,
        16644.666,
        10850,
        10798,
        10838,
        10904,
        10979.333,
        11086,
        11197.333,
        11350.667,
        11516.667,
        11688,
        11868.667,
        12035.333,
        12211.333,
        12392,
        12557.333,
        12734.667,
        12884.667,
        13021.333,
        13155.333,
        13278,
        13393.333,
        13502.667,
        13616,
        13700.667,
        13798.667,
        13892.667,
        13948,
        14000.667,
        14057.333,
        14104.667,
        14132,
        14165.333,
        14186,
        14200,
        14206.667,
        14198.667,
        14190,
        14182,
        14172,
        14155.333,
        14117.333,
        14087.333,
        14047.333,
        13996,
        13937.333,
        13859.333,
        13768,
        13684,
        13578,
        13440.667,
        13316,
        13196,
        13049.333,
        12882.667,
        12728,
        12554,
        12378.667,
        12183.333,
        11960,
        16620.666,
        16460,
        16237.333,
        16001.333,
        15771.333,
        15550.667,
        15353.333,
        15132,
        14942.667,
        14738,
        14576.667,
        14409.333,
        14258,
        14133.333,
        14026.667,
        13930.667,
        13864.667,
        13802,
        13765.333,
        13740.667,
        13694,
        13703.333,
        13689.333,
        13704,
        13700,
        13700,
        13693.333,
        13708,
        13709.333,
        13719.333,
        13720,
        13741.333,
        13744,
        13740,
        13751.333,
        13744.667,
        13750,
        13752,
        13762.667,
        13764.667,
        13771.333,
        13772,
        13774.667,
        13772,
        13764.667,
        13763.333,
        13770.667,
        13757.333,
        13756.667,
        13750.667,
        13744,
        13741.333,
        13742,
        13729.333,
        13706.667,
        13707.333,
        13692,
        13677.333,
        13674.667,
        13650.667,
        13686.667,
        13675.333,
        13640,
        13612.667,
        13570,
        13540,
        13500,
        13470,
        13428,
        13390.667,
        13346,
        13306,
        13258,
        13219.333,
        13188.667,
        13139.333,
        13098.667,
        13064.667,
        13018,
        12992,
        12962.667,
        12924.667,
        12898,
        12866.667,
        12838,
        12828,
        12807.333,
        12792.667,
        12784.667,
        12775.333,
        12768.667,
        12767.333,
        12770.667,
        12786.667,
        12787.333,
        12807.333,
        12818.667,
        12842,
        12860.667,
        12881.333,
        12914.667,
        12954,
        12983.333,
        13025.333,
        13079.333,
        13107.333,
        13145.333,
        13190,
        13242.667,
        13280,
        13334,
        13382,
        13415.333,
        13462.667,
        13508,
        13550,
        13582.667,
        13628,
        13668.667,
        13703.333
      ],
      "processed": {
        "wavelengths": [
          370,
          395,
          420,
          530,
          605,
          650,
          730,
          850,
          880,
          940
        ],
        "median": [
          4968.579370551379,
          11169.978321553885,
          20119.17926867168,
          18091.841521303253,
          15775.602474937343,
          20408.065681704258,
          19846.440252631575,
          13707.480821052632,
          13752.056805137843,
          13186.876817042605
        ],
        "stdev": [
          19.974035991700024,
          23.3761388935883,
          8.004890423909137,
          245.47663385317705,
          76.0444716312967,
          54.210728572205475,
          229.03724917971317,
          148.92626958590057,
          12.99929072865432,
          7.445129475699002
        ],
        "three_stdev": [
          59.922107975100076,
          70.1284166807649,
          24.01467127172741,
          736.4299015595311,
          228.13341489389012,
          162.63218571661642,
          687.1117475391395,
          446.7788087577017,
          38.99787218596296,
          22.335388427097005
        ],
        "spad": [
          97.50858526855745,
          16.58830128727063,
          -42.22424697508431,
          -31.607454817106667,
          -17.914294875166714,
          -43.649348999204065,
          -40.859903809386836,
          -3.869654748424934,
          -4.194132644376309,
          0
        ],
        "warnings": [
          "The 530nm LED appears noisier than normal.  Look at the \"Raw Spectral Response\"  graph and consider re-measuring the sample.  Pay attention to sources of vibration like wind, hand shaking, etc.",
          "The 605nm LED appears noisier than normal.  Look at the \"Raw Spectral Response\"  graph and consider re-measuring the sample.  Pay attention to sources of vibration like wind, hand shaking, etc.",
          "The 650nm LED appears noisier than normal.  Look at the \"Raw Spectral Response\"  graph and consider re-measuring the sample.  Pay attention to sources of vibration like wind, hand shaking, etc.",
          "The 730nm LED appears noisier than normal.  Look at the \"Raw Spectral Response\"  graph and consider re-measuring the sample.  Pay attention to sources of vibration like wind, hand shaking, etc.",
          "The 850nm LED appears noisier than normal.  Look at the \"Raw Spectral Response\"  graph and consider re-measuring the sample.  Pay attention to sources of vibration like wind, hand shaking, etc."
        ],
        "info": []
      }
    }
  ],
  "memory": {}
}B