{
  "is_chlorophyll": 1,
  "location": "47.472130;8.308389;-1;-1",
  "chlorophyll/chlorophyll_1":
    "{\"meta\":{\"filename\":\"https://s3.us-east-1.amazonaws.com/net-oursci/survey-results/Tree-Health-Survey_5/uuid%3A77d18147-d3af-43bd-88b4-b0285bf1b1b9/measurement_2018-06-07T14%3A27%3A48.200-04%3A00.json\",\"scriptID\":\"standard-chlorophyll-2-1\",\"date\":\"2018-06-07T14:27:48.203-04:00\"},\"data\":{\"device_battery\":\"91\",\"device_id\":\"00:00:00:0c\",\"device_version\":\"1B\",\"device_firmware\":\"1.19\",\"median_370\":\"-2.44201\",\"median_395\":\"-4.3592\",\"median_420\":\"-3.69817\",\"median_530\":\"-1.82951\",\"median_605\":\"-2.30396\",\"median_650\":\"-7.18552\",\"median_730\":\"-5.88183\",\"median_850\":\"45.3919\",\"median_880\":\"40.9902\",\"median_940\":\"34.6937\",\"three_stdev_370\":\"0.0557419\",\"three_stdev_395\":\"0.0302721\",\"three_stdev_420\":\"0.0319606\",\"three_stdev_530\":\"0.0317792\",\"three_stdev_605\":\"0.022081\",\"three_stdev_650\":\"0.0443674\",\"three_stdev_730\":\"0.0371414\",\"three_stdev_850\":\"0.126185\",\"three_stdev_880\":\"0.0851162\",\"three_stdev_940\":\"0.106623\",\"chlorophyll_spad \":\"300.35\",\"carotenoid_spad\":\"193.427\",\"anthocyanin_spad\":\"201.428\",\"temperature\":\"36.5567\",\"humidity\":\"38.8133\",\"pressure\":\"983.987\",\"voc\":\"129.566\"}}",
  "dbh": "22",
  "age": "7",
  "tpz_line_bare": "0",
  "tpz_line_grass": "100",
  "tpz_line_impervious": "0",
  "tpz_line_mulch": "0",
  "crown_density": "60",
  "crown_dieback": "0",
  "crown_light_exposure": "100",
  "crown_position": "100",
  "species": "quercus-macrocarpa"
}
